Loading compiler version 2023.2.4
Loading tbb version 2021.10.0
Loading compiler-rt version 2023.2.4
Loading oclfpga version 2023.2.4
  Load "debugger" to debug DPC++ applications with the gdb-oneapi debugger.
  Load "dpl" for additional DPC++ APIs: https://github.com/oneapi-src/oneDPL
Loading modulefiles version 2021.11
Loading advisor version 2023.2.0
Loading dal version 2023.2.0
Loading inspector version 2023.2.0
Loading intel_ipp_intel64 version 2021.9.0

For a full Intel(R) Integrated Performance Primitives functionality, you should load Intel(R) oneAPI Compiler and Intel(R) oneAPI Threading Building Blocks modules.

Loading itac version 2021.10.0
Loading mkl version 2023.2.0
Loading vtune version 2023.2.0
Loading debugger version 2023.2.0
Loading dpl version 2022.2.0

Loading BaseCPU/2024
  Loading requirement: inteloneAPI/2023.2 tbb/latest compiler-rt/latest
    oclfpga/latest compiler/latest mpi/latest advisor/latest dal/latest
    inspector/latest intel_ipp_intel64/latest itac/latest mkl/latest
    vtune/latest debugger/latest dpl/latest
========= Job started  at 2024年  8月  9日 金曜日 16:15:09 JST ==========
-------------------------------------
 Mode    Frequency        Intensity
  #    meV     cm^-1   (D/Å)^2 amu^-1
-------------------------------------
  0    0.0i      0.2i     0.0000
  1    0.0       0.4      0.0000
  2    0.1       0.4      0.0000
  3   62.0     499.9      0.0000
  4   80.9     652.4      0.0000
  5   84.6     682.5      0.0000
  6  120.9     975.2      0.0000
  7  142.8    1151.6      0.0000
  8  180.0    1451.8      0.0000
  9  224.5    1810.7      0.0000
 10  225.8    1821.5      0.0288
 11  260.0    2097.3      0.0000
-------------------------------------
Zero-point energy: 0.691 eV
Static dipole moment: 0.000 D
Maximum force on atom in `equilibrium`: 0.4596 eV/Å

Exporting Trajectories:   0%|          | 0/12 [00:00<?, ?it/s]Exporting Trajectories: 100%|██████████| 12/12 [00:00<00:00, 136.98it/s]
Exporting GIFs:   0%|          | 0/12 [00:00<?, ?it/s]Exporting GIFs:   8%|▊         | 1/12 [00:07<01:26,  7.91s/it]Exporting GIFs:  42%|████▏     | 5/12 [00:14<00:17,  2.49s/it]Exporting GIFs:  67%|██████▋   | 8/12 [00:14<00:05,  1.32s/it]Exporting GIFs:  83%|████████▎ | 10/12 [00:20<00:03,  1.84s/it]Exporting GIFs: 100%|██████████| 12/12 [00:20<00:00,  1.31s/it]Exporting GIFs: 100%|██████████| 12/12 [00:20<00:00,  1.70s/it]
========= Job finished at 2024年  8月  9日 金曜日 16:15:46 JST ==========
